Zadanie 6.5 raport
…
tidy_tokeny <- as_tibble(freq_df)

#' # Analiza sentymentu przy uyciu sownika Loughran
# Analiza sentymentu przy uyciu sownika Loughran ----

# Uycie inner_join()
tidy_tokeny %>%
  inner_join(loughran, relationship = "many-to-many")

## Joining with `by = join_by(word)`

## # A tibble: 128 x 3
##    word        freq sentiment
##    <chr>      <dbl> <chr>    
##  1 beautiful     17 positive 
##  2 law           12 litigious
##  3 dangerous     11 negative 
##  4 bad            9 negative 
##  5 strong         9 positive 
##  6 arrests        8 negative 
##  7 illegal        8 negative 
##  8 successful     8 positive 
##  9 criminal       7 negative 
## 10 criminal       7 litigious
## # i 118 more rows
…
# Zliczanie, ktre sowa s najczstsze
# dla danego sentymentu
sentiment_review %>%
  count(word, sentiment) %>%
  arrange(desc(n))

## # A tibble: 128 x 3
##    word         sentiment       n
##    <chr>        <chr>       <int>
##  1 abuse        negative        1
##  2 accomplished positive        1
##  3 accused      negative        1
##  4 achieved     positive        1
##  5 arrests      negative        1
##  6 assaulted    negative        1
##  7 assume       uncertainty     1
##  8 bad          negative        1
##  9 barriers     negative        1
## 10 beautiful    positive        1
## # i 118 more rows
…
# Zliczanie, ktre sowa s najczstsze
# dla danego sentymentu
sentiment_review_nrc %>%
  count(word, sentiment) %>%
  arrange(desc(n))

## # A tibble: 914 x 3
##    word           sentiment     n
##    <chr>          <chr>     <int>
##  1 abuse          anger         1
##  2 abuse          disgust       1
##  3 abuse          fear          1
##  4 abuse          negative      1
##  5 abuse          sadness       1
##  6 accomplished   joy           1
##  7 accomplished   positive      1
##  8 accord         positive      1
##  9 accord         trust         1
## 10 accountability positive      1
## # i 904 more rows
…
## # A tibble: 2 x 2
##   sentiment     n
##   <chr>     <int>
## 1 negative    110
## 2 positive    114

# Zliczanie, ktre sowa s najczstsze
# dla danego sentymentu
sentiment_review_bing %>%
  count(word, sentiment) %>%
  arrange(desc(n))

## # A tibble: 224 x 3
##    word         sentiment     n
##    <chr>        <chr>     <int>
##  1 abuse        negative      1
##  2 accomplished positive      1
##  3 advanced     positive      1
##  4 advocate     positive      1
##  5 affordable   positive      1
##  6 amazing      positive      1
##  7 angel        positive      1
##  8 appalling    negative      1
##  9 applaud      positive      1
## 10 appreciates  positive      1
## # i 214 more rows
…
# Zliczanie, ktre sowa s najczstsze
# dla danego sentymentu
sentiment_review_afinn %>%
  count(word, value) %>%
  arrange(desc(n))

## # A tibble: 201 x 3
##    word         value     n
##    <chr>        <int> <int>
##  1 abuse           -3     1
##  2 accepted         1     1
##  3 accomplished     2     1
##  4 accused         -2     1
##  5 admired          3     1
##  6 admit           -1     1
##  7 advanced         1     1
##  8 agreement        1     1
##  9 alive            1     1
## 10 amazing          4     1
## # i 191 more rows
…
